<svg width="48" height="48" xmlns="http://www.w3.org/2000/svg">
    <g fill="none" fill-rule="evenodd">
        <rect x="14" y="14" width="20" height="20" rx="10"/>
        <path d="M23.12 30.594a.74.74 0 0 1-1.025 0l-5.6-5.433a1.607 1.607 0 0 1 0-2.322l5.6-5.433a.74.74 0 0 1 1.026 0 .689.689 0 0 1 0 .995l-5.046 4.896h14.2c.4 0 .725.314.725.703a.714.714 0 0 1-.725.703h-14.2L23.12 29.6a.689.689 0 0 1 0 .995z" fill="#212121" fill-rule="nonzero"/>
    </g>
</svg>
